<svg xmlns="http://www.w3.org/2000/svg" width="45.797" height="45.797" viewBox="0 0 45.797 45.797">
  <g id="noun_Close_3652544" transform="translate(3.556 3.556)">
    <g id="Group_112" data-name="Group 112" transform="translate(-3.556 -3.556)">
      <path id="Path_70" data-name="Path 70" d="M16.192,0a1.615,1.615,0,0,1,1.462,1.589l.01.21V14.72H30.584a1.66,1.66,0,0,1,1.8,1.472,1.615,1.615,0,0,1-1.589,1.462l-.21.01H17.664V30.584a1.66,1.66,0,0,1-1.472,1.8,1.615,1.615,0,0,1-1.462-1.589l-.01-.21V17.664H1.8A1.66,1.66,0,0,1,0,16.192,1.615,1.615,0,0,1,1.589,14.73l.21-.01H14.72V1.8A1.66,1.66,0,0,1,16.192,0Z" transform="translate(22.899 0) rotate(45)" fill="#9d9d9d"/>
    </g>
  </g>
</svg>
