<svg xmlns="http://www.w3.org/2000/svg" width="51" height="51" viewBox="0 0 51 51">
  <g id="Group_126" data-name="Group 126" transform="translate(0 0.322)">
    <circle id="Ellipse_6" data-name="Ellipse 6" cx="25.5" cy="25.5" r="25.5" transform="translate(0 -0.322)" fill="#3b5999"/>
    <path id="facebook-f-brands" d="M37.25,16.139l.8-5.193H33.065V7.577a2.6,2.6,0,0,1,2.928-2.805h2.265V.351A27.623,27.623,0,0,0,34.236,0c-4.1,0-6.785,2.487-6.785,6.989v3.958H22.89v5.193h4.561V28.692h5.613V16.139Z" transform="translate(-5.108 10.993)" fill="#fff"/>
  </g>
</svg>
