<svg xmlns="http://www.w3.org/2000/svg" width="51" height="51" viewBox="0 0 51 51">
  <g id="Group_125" data-name="Group 125" transform="translate(-0.135 0.322)">
    <circle id="Ellipse_7" data-name="Ellipse 7" cx="25.5" cy="25.5" r="25.5" transform="translate(0.135 -0.322)" fill="#00c300"/>
    <g id="line" transform="translate(11.518 12.669)">
      <g id="Group_124" data-name="Group 124" transform="translate(0 0)">
        <path id="Path_72" data-name="Path 72" d="M88.306,82.326a6.859,6.859,0,0,0,.108-.829,10.425,10.425,0,0,0-.013-1.064c-.332-5.781-6.33-10.387-13.681-10.387-7.564,0-13.7,4.877-13.7,10.893,0,5.53,5.18,10.1,11.891,10.8a.744.744,0,0,1,.661.823l-.286,2.572a.746.746,0,0,0,1.068.753c5.67-2.736,9.06-5.551,11.085-7.99.368-.444,1.57-2.127,1.815-2.569A9.169,9.169,0,0,0,88.306,82.326Z" transform="translate(-61.025 -70.046)" fill="#fff"/>
        <path id="Path_73" data-name="Path 73" d="M120.44,170.463v-4.588a.7.7,0,0,0-.7-.7h0a.7.7,0,0,0-.7.7v5.289a.7.7,0,0,0,.7.7h2.8a.7.7,0,0,0,.7-.7h0a.7.7,0,0,0-.7-.7Z" transform="translate(-114.276 -157.363)" fill="#00c500"/>
        <path id="Path_74" data-name="Path 74" d="M179.188,171.864h-.306a.547.547,0,0,1-.547-.547v-5.6a.547.547,0,0,1,.547-.547h.306a.547.547,0,0,1,.547.547v5.6A.547.547,0,0,1,179.188,171.864Z" transform="translate(-168.702 -157.363)" fill="#00c500"/>
        <path id="Path_75" data-name="Path 75" d="M212.258,165.874v3.231s-2.8-3.649-2.84-3.7a.7.7,0,0,0-.549-.234.72.72,0,0,0-.673.729v5.26a.7.7,0,0,0,.7.7h0a.7.7,0,0,0,.7-.7v-3.211s2.84,3.681,2.882,3.721a.7.7,0,0,0,.474.191.726.726,0,0,0,.707-.73v-5.26a.7.7,0,0,0-.7-.7h0A.7.7,0,0,0,212.258,165.874Z" transform="translate(-196.111 -157.363)" fill="#00c500"/>
        <path id="Path_76" data-name="Path 76" d="M291.741,165.875h0a.7.7,0,0,0-.7-.7h-2.8a.7.7,0,0,0-.7.7v5.289a.7.7,0,0,0,.7.7h2.8a.7.7,0,0,0,.7-.7h0a.7.7,0,0,0-.7-.7h-2.1V169.22h2.1a.7.7,0,0,0,.7-.7h0a.7.7,0,0,0-.7-.7h-2.1v-1.243h2.1A.7.7,0,0,0,291.741,165.875Z" transform="translate(-268.939 -157.363)" fill="#00c500"/>
      </g>
    </g>
  </g>
</svg>
