<svg xmlns="http://www.w3.org/2000/svg" width="43.333" height="60.353" viewBox="0 0 43.333 60.353">
  <g id="noun_maintenance_1948983" transform="translate(0.152 0.16)">
    <g id="Group_10" data-name="Group 10" transform="translate(0 0)">
      <path id="Path_4" data-name="Path 4" d="M41.966,24.7a1,1,0,0,0-.95-.684H40.2a12.709,12.709,0,0,0,4.814-10.007A13.127,13.127,0,0,0,37.43,2.091,1,1,0,0,0,36.012,3V13.008H28.007V3a1,1,0,0,0-1.418-.91,12.992,12.992,0,0,0-.583,23.346V30.02H23.5a3.5,3.5,0,0,0-2.449,6,3.5,3.5,0,0,0,0,5,3.5,3.5,0,0,0,0,5,3.5,3.5,0,0,0,2.449,6h2.5v4a6,6,0,1,0,12.009,0v-4H62.031v-2H44.018V32.022H62.031v-2H43.739Zm-.336,5.32H38.014v-4h2.281ZM38.014,4.695a11.147,11.147,0,0,1,4.959,8.313H38.014ZM27.423,23.909A10.988,10.988,0,0,1,26.005,4.694v9.315a1,1,0,0,0,1,1H42.972A10.835,10.835,0,0,1,36.6,23.9a1,1,0,0,0-.583.913v5.2h-3v-5h-2v5h-3v-5.2a1,1,0,0,0-.583-.913ZM22,48.534a1.5,1.5,0,0,1,1.5-1.5,1,1,0,1,0,0-2,1.5,1.5,0,0,1,0-3,1,1,0,1,0,0-2,1.5,1.5,0,0,1,0-3,1,1,0,1,0,0-2,1.5,1.5,0,0,1,0-3H42.017V50.035H23.5A1.5,1.5,0,0,1,22,48.534Zm14.01,7.505a4,4,0,1,1-8.006,0v-4h8.006Z" transform="translate(-19 -2)" fill="#ed1c24" stroke="#ed1c24" stroke-width="0.3"/>
      <rect id="Rectangle_4" data-name="Rectangle 4" width="8.006" height="2.001" transform="translate(9.007 15.91)" fill="#ed1c24" stroke="#ed1c24" stroke-width="0.3"/>
      <path id="Path_5" data-name="Path 5" d="M46,45a3,3,0,1,0,3-3A3,3,0,0,0,46,45Zm4,0a1,1,0,1,1-1-1A1,1,0,0,1,50,45Z" transform="translate(-18.98 -1.971)" fill="#ed1c24" stroke="#ed1c24" stroke-width="0.3"/>
    </g>
  </g>
</svg>
