<svg xmlns="http://www.w3.org/2000/svg" width="25.63" height="10.252" viewBox="0 0 25.63 10.252">
  <g id="Group_94" data-name="Group 94" transform="translate(0 0)">
    <g id="Group_93" data-name="Group 93">
      <path id="Path_62" data-name="Path 62" d="M44.1,45.524H30v3.2H44.1v3.524L55.63,47.126,44.1,42Z" transform="translate(-30 -42)" fill="#ddd" fill-rule="evenodd"/>
    </g>
  </g>
</svg>
